…
        Now let's look at how to create a similar table using `tibble()`:

        ```r
        tb <- tibble(
          A = rpois(10, 4),
          B = rnorm(n = length(A), mean = A)
        )

        tb
        ```

        ```
        # A tibble: 10 × 2
               A     B
           <int> <dbl>
         1     7  8.37
         2     4  4.06
         3     6  6.78
         4     1  1.02
         5     3  1.42
         6     7  5.89
         7     3  1.69
         8     2  2.53
         9     6  5.33
        10     3  4.01
        ```

        Notice how much cleaner (and less typing) that was? It evaluates every argument based on whether if something was created in the lines before it.

One other thing you may notice is how data is printed. The example above prints `df` and `tb`, but the unique printed output of tibbles becomes really useful when looking at larger tables. Compare the following:

```r
as.data.frame(asv)
as_tibble(asv)
```

Notice that with `as.data.frame(asv)` the printed output is quite voluminous and it ends with a `[ reached 'max' / getOption("max.print") -- omitted 3986 rows ]` warning. However, with `as_tibble(asv)`, the result is cleaner and more informative. It's like `str()`, but tabular.
…
